<?xml version="1.0" encoding="UTF-8"?>
<svg width="18px" height="20px" viewBox="0 0 18 20" version="1.1" xmlns="http://www.w3.org/2000/svg" xmlns:xlink="http://www.w3.org/1999/xlink">
    <!-- Generator: Sketch 42 (36781) - http://www.bohemiancoding.com/sketch -->
    <title>Icon</title>
    <desc>Created with Sketch.</desc>
    <defs></defs>
    <g id="Page-1" stroke="none" stroke-width="1" fill="none" fill-rule="evenodd">
        <g id="Upcoming-Booking" transform="translate(-630.000000, -371.000000)" fill="#BB903F">
            <g id="Pop-Up">
                <g id="Group" transform="translate(415.000000, 222.000000)">
                    <g id="1" transform="translate(45.000000, 149.000000)">
                        <g id="Date" transform="translate(157.000000, 0.000000)">
                            <path d="M19,9 L17,9 L17,11 L19,11 L19,9 L19,9 Z M23,9 L21,9 L21,11 L23,11 L23,9 L23,9 Z M27,9 L25,9 L25,11 L27,11 L27,9 L27,9 Z M29,2 L28,2 L28,0 L26,0 L26,2 L18,2 L18,0 L16,0 L16,2 L15,2 C13.89,2 13.01,2.9 13.01,4 L13,18 C13,19.1 13.89,20 15,20 L29,20 C30.1,20 31,19.1 31,18 L31,4 C31,2.9 30.1,2 29,2 L29,2 Z M29,18 L15,18 L15,7 L29,7 L29,18 L29,18 Z" id="Icon"></path>
                        </g>
                    </g>
                </g>
            </g>
        </g>
    </g>
</svg>