<?xml version="1.0" encoding="UTF-8"?>
<svg width="9px" height="10px" viewBox="0 0 9 10" version="1.1" xmlns="http://www.w3.org/2000/svg" xmlns:xlink="http://www.w3.org/1999/xlink">
    <!-- Generator: Sketch 42 (36781) - http://www.bohemiancoding.com/sketch -->
    <title>Shape</title>
    <desc>Created with Sketch.</desc>
    <defs></defs>
    <g id="Page-1" stroke="none" stroke-width="1" fill="none" fill-rule="evenodd">
        <g id="No-Payment" transform="translate(-925.000000, -501.000000)" fill="#FFFFFF">
            <g id="Pay" transform="translate(320.000000, 310.000000)">
                <g id="Group" transform="translate(0.000000, 80.000000)">
                    <g id="4" transform="translate(330.000000, 84.000000)">
                        <path d="M278.249606,36.1580041 C277.964921,36.1580041 277.695674,36.0248196 277.522586,35.7963912 L275.184924,32.7092065 C274.880876,32.3076906 274.960028,31.7359655 275.361544,31.4317868 C275.763714,31.1274773 276.335047,31.2071525 276.639225,31.6084067 L278.176734,33.6386196 L282.043663,27.4297111 C282.309901,27.0025526 282.872076,26.8718539 283.30015,27.1376996 C283.727701,27.4038069 283.858269,27.9663739 283.5919,28.3939248 L279.023855,35.728229 C278.865159,35.9832158 278.591202,36.1436128 278.29121,36.1572191 C278.277211,36.1577424 278.263474,36.1580041 278.249606,36.1580041 Z" id="Shape"></path>
                    </g>
                </g>
            </g>
        </g>
    </g>
</svg>