<?xml version="1.0" encoding="UTF-8"?>
<svg width="21px" height="25px" viewBox="0 0 21 25" version="1.1" xmlns="http://www.w3.org/2000/svg" xmlns:xlink="http://www.w3.org/1999/xlink">
    <!-- Generator: Sketch 42 (36781) - http://www.bohemiancoding.com/sketch -->
    <title>Combined Shape</title>
    <desc>Created with Sketch.</desc>
    <defs></defs>
    <g id="Page-1" stroke="none" stroke-width="1" fill="none" fill-rule="evenodd">
        <g id="Payment" transform="translate(-670.000000, -411.000000)" fill="#706D76">
            <g id="Pay" transform="translate(320.000000, 310.000000)">
                <g id="Group" transform="translate(0.000000, 80.000000)">
                    <g id="3" transform="translate(330.000000, 0.000000)">
                        <path d="M25.8836472,41.311329 C25.8363309,41.559477 25.6207786,41.7382276 25.3684248,41.7382276 L21.5620879,41.7382276 C21.1698879,41.7382276 20.6084007,41.6909112 20.267723,41.2818877 C19.877626,40.8150332 19.9964426,40.1578617 20.1121048,39.5238227 C20.3055761,38.4597307 22.3002228,25.9997603 22.6514152,23.5287957 C23.0005047,21.0704488 24.7585697,21.0704488 25.4209985,21.0704488 C25.5345578,21.0704488 29.4050347,21 32.5068838,21 C34.6361193,21 36.344765,21.6971275 37.3194817,22.9652055 C38.4025002,24.374181 38.597023,26.42035 37.8977926,29.0469328 C36.8715536,32.9037405 33.8990358,34.8573798 29.0612026,34.8573798 L28.2326408,34.8510709 C27.0434234,34.8510709 26.9750775,35.3284403 26.8951655,35.8815157 L26.8709816,36.035031 C26.7784519,36.5975697 25.8836472,41.311329 25.8836472,41.311329 Z M39.3183343,27.0438743 C40.273073,28.1899813 40.8419206,30.0910468 40.0007412,33.25283 C38.4319415,39.1473949 32.7855245,39.0822035 30.6625979,39.0601226 L30.3355894,39.0580196 C29.146372,39.0580196 29.0780261,39.5343375 28.9981141,40.0874129 L28.9739302,40.2419797 C28.8814004,40.8034669 27.9865958,45.5172262 27.9865958,45.5172262 C27.9392795,45.7643227 27.7237272,45.9441248 27.4713734,45.9441248 L23.6650365,45.9441248 C23.2728365,45.9441248 22.7113493,45.8968084 22.3706716,45.4877849 C21.9805746,45.0209303 22.0993912,44.3637589 22.2150534,43.7297199 C22.2402888,43.5951312 22.2960169,43.2639168 22.373826,42.7897019 L25.3684248,42.7897019 C26.1233834,42.7897019 26.774246,42.2502956 26.916195,41.5058518 C26.916195,41.5058518 27.816257,36.7721145 27.9108897,36.1917007 C27.9108897,36.1917007 27.9455883,35.9551189 27.9508457,35.9193688 C28.0118312,35.9099056 28.1012065,35.9035967 28.224229,35.9035967 L29.0612026,35.9088541 C35.7538365,35.9088541 38.1133448,32.3254297 38.9135167,29.3161102 C39.126966,28.5127839 39.2573488,27.7588768 39.3183343,27.0438743 Z" id="Combined-Shape"></path>
                    </g>
                </g>
            </g>
        </g>
    </g>
</svg>