<?xml version="1.0" encoding="UTF-8"?>
<svg width="22px" height="18px" viewBox="0 0 22 18" version="1.1" xmlns="http://www.w3.org/2000/svg" xmlns:xlink="http://www.w3.org/1999/xlink">
    <!-- Generator: Sketch 42 (36781) - http://www.bohemiancoding.com/sketch -->
    <title>Menu</title>
    <desc>Created with Sketch.</desc>
    <defs></defs>
    <g id="Page-1" stroke="none" stroke-width="1" fill="none" fill-rule="evenodd">
        <g id="Home" transform="translate(-160.000000, -42.000000)" fill="#706D76">
            <g id="Nav" transform="translate(160.000000, 40.000000)">
                <path d="M0,2 L22,2 L22,4 L0,4 L0,2 Z M0,10 L22,10 L22,12 L0,12 L0,10 Z M0,18 L22,18 L22,20 L0,20 L0,18 Z" id="Menu"></path>
            </g>
        </g>
    </g>
</svg>