{
	"welkome_message": "Welcome to Tai’an Table",
	"online_reservation": "Online Reservation",
	"taian_table": "Tai’an Table",
	"book_a_table": "Book a Table",
	"edit_profile": "Edit Profile",
	"name": "NAME",
	"email_address": "EMAIL ADDRESS",
	"phone_number": "PHONE NUMBER",
	"send_code": "SEND CODE",
	"update": "UPDATE",
	"Timeout": "Timeout",
	"time_over_error": "Sorry! Time is over. Please start your booking all over again.",
	"back_to_home": "Back to home",
	"upcoming_booking": "Upcoming Booking",
	"change_booking": "Change Booking?",
	"login": "Login",
	"phone_number": "PHONE NUMBER",
	"verification_code": "VERIFICATION CODE",
	"verify_to_login": "VERIFY TO LOGIN",
	"select_language": "Select Language",
	"continue_to_book": "CONTINUE TO BOOK",
	"steps": "Steps",
	"step": "STEP",
	"no_of_people": "No of People",
	"choose_a_data": "Choose a Date",
	"choose_a_time": "Choose a Time",
	"review_boking": "Review Booking",
	"personal_info": "Personal Info",
	"more_than": "More than",
	"people": "people",
	"contact_us": "Contact us",
	"choose_a_date": "Choose a Date",
	"sorry_we_are_all_booked": "Sorry we’re all booked.",
	"join_waiting_list": "Join Waiting List",
	"show_modal": "Show Modal",
	"early_dinner": "Early Dinner",
	"learn_more": "(Learn More)",
	"normal_dinner": "Normal Dinner",
	"deposit": "You will require a deposit of",
	"deposit2": " per seat to secure your table.",
	"read_terms": "Read Terms & Condition",
	"already_a_memeber": "Already a Memeber?",
	"login_here":"Login Here",
	"special_requests": "SPECIAL REQUESTS",
	"if_you_have_any_request": "Mention here if you've any request",
	"final_step": "FINAL STEP",
	"pay": "Pay",
	"alipay": "Alipay",
	"paypal": "PayPal",
	"foreign_cards": "Foreign cards",
	"we_chat_pay": "WeChat Pay",
	"book_without_pay": "Book without Pay",
	"continue": "CONTINUE",
	"prefer_not_to_pay": "If you prefer not to pay the deposit, does not",
	"not_to_pay": "guarantee you will receive a seat.",
	"learn_more": "Learn More",
	"about": "About",
	"faq": "F.A.Q",
	"copyright_tai’an_table": "© Copyright Tai’an Table",
	"edit": "Edit",
	"go_to_payment": "Go to Payment",
	"language": "Language",
	"upcoming_bookings": "Upcoming Bookings",
	"seats_available": "Seats Available",
	"confirm": "Confirm",
	"hello": "Hello",
	"error": "Error",
	"message_error1": "Opps! Something went wrong. Please start your",
	"message_error2": "booking all over again.",
	"timeout": "Timeout",
	"timeout_message1": "Sorry! Time is over. Please start your",
	"timeout_message2": "booking all over again."








}