<?xml version="1.0" encoding="UTF-8"?>
<svg width="14px" height="19px" viewBox="0 0 14 19" version="1.1" xmlns="http://www.w3.org/2000/svg" xmlns:xlink="http://www.w3.org/1999/xlink">
    <!-- Generator: Sketch 42 (36781) - http://www.bohemiancoding.com/sketch -->
    <title>Combined Shape</title>
    <desc>Created with Sketch.</desc>
    <defs></defs>
    <g id="Page-1" stroke="none" stroke-width="1" fill="none" fill-rule="evenodd">
        <g id="Home" transform="translate(-1106.000000, -41.000000)" fill="#706D76">
            <g id="Nav" transform="translate(160.000000, 40.000000)">
                <path d="M957.5,6 C956.119288,6 955,4.88071187 955,3.5 C955,2.11928813 956.119288,1 957.5,1 C958.880712,1 960,2.11928813 960,3.5 C960,4.88071187 958.880712,6 957.5,6 Z M957.5,13 C956.119288,13 955,11.8807119 955,10.5 C955,9.11928813 956.119288,8 957.5,8 C958.880712,8 960,9.11928813 960,10.5 C960,11.8807119 958.880712,13 957.5,13 Z M957.5,20 C956.119288,20 955,18.8807119 955,17.5 C955,16.1192881 956.119288,15 957.5,15 C958.880712,15 960,16.1192881 960,17.5 C960,18.8807119 958.880712,20 957.5,20 Z M948.5,6 C947.119288,6 946,4.88071187 946,3.5 C946,2.11928813 947.119288,1 948.5,1 C949.880712,1 951,2.11928813 951,3.5 C951,4.88071187 949.880712,6 948.5,6 Z M948.5,13 C947.119288,13 946,11.8807119 946,10.5 C946,9.11928813 947.119288,8 948.5,8 C949.880712,8 951,9.11928813 951,10.5 C951,11.8807119 949.880712,13 948.5,13 Z M948.5,20 C947.119288,20 946,18.8807119 946,17.5 C946,16.1192881 947.119288,15 948.5,15 C949.880712,15 951,16.1192881 951,17.5 C951,18.8807119 949.880712,20 948.5,20 Z" id="Combined-Shape"></path>
            </g>
        </g>
    </g>
</svg>