<?xml version="1.0" encoding="UTF-8"?>
<svg width="14px" height="15px" viewBox="0 0 14 15" version="1.1" xmlns="http://www.w3.org/2000/svg" xmlns:xlink="http://www.w3.org/1999/xlink">
    <!-- Generator: Sketch 42 (36781) - http://www.bohemiancoding.com/sketch -->
    <title>Shape</title>
    <desc>Created with Sketch.</desc>
    <defs></defs>
    <g id="Page-1" stroke="none" stroke-width="1" fill="none" fill-rule="evenodd">
        <g id="Select-Language" transform="translate(-582.000000, -434.000000)" fill="#BB903F">
            <g id="Logo-+-Select" transform="translate(527.000000, 360.000000)">
                <path d="M60.1107782,88.4031384 C59.6630432,88.4031384 59.239588,88.1936742 58.9673667,87.8344162 L55.2908371,82.9790844 C54.8126496,82.3476052 54.9371347,81.4484316 55.5686139,80.9700383 C56.2011218,80.4914392 57.0996782,80.6167474 57.5780715,81.2478151 L59.9961695,84.4408074 L66.0778343,74.6758229 C66.4965571,74.0040146 67.3807102,73.7984598 68.0539587,74.2165653 C68.7263842,74.6350823 68.9317332,75.5198527 68.5128047,76.1922782 L61.3284691,87.727215 C61.0788816,88.1282423 60.648019,88.3805048 60.17621,88.4019039 C60.1541936,88.4027269 60.1325888,88.4031384 60.1107782,88.4031384 Z" id="Shape"></path>
            </g>
        </g>
    </g>
</svg>