<?xml version="1.0" encoding="UTF-8"?>
<svg width="20px" height="20px" viewBox="0 0 20 20" version="1.1" xmlns="http://www.w3.org/2000/svg" xmlns:xlink="http://www.w3.org/1999/xlink">
    <!-- Generator: Sketch 42 (36781) - http://www.bohemiancoding.com/sketch -->
    <title>Icon</title>
    <desc>Created with Sketch.</desc>
    <defs></defs>
    <g id="Page-1" stroke="none" stroke-width="1" fill="none" fill-rule="evenodd">
        <g id="Upcoming-Booking" transform="translate(-738.000000, -371.000000)" fill="#BB903F">
            <g id="Pop-Up">
                <g id="Group" transform="translate(415.000000, 222.000000)">
                    <g id="1" transform="translate(45.000000, 149.000000)">
                        <g id="People" transform="translate(258.000000, 0.000000)">
                            <path d="M27,9.75 C26.31,9.75 25.75,10.31 25.75,11 C25.75,11.69 26.31,12.25 27,12.25 C27.69,12.25 28.25,11.69 28.25,11 C28.25,10.31 27.69,9.75 27,9.75 L27,9.75 Z M33,9.75 C32.31,9.75 31.75,10.31 31.75,11 C31.75,11.69 32.31,12.25 33,12.25 C33.69,12.25 34.25,11.69 34.25,11 C34.25,10.31 33.69,9.75 33,9.75 L33,9.75 Z M30,0 C24.48,0 20,4.48 20,10 C20,15.52 24.48,20 30,20 C35.52,20 40,15.52 40,10 C40,4.48 35.52,0 30,0 L30,0 Z M30,18 C25.59,18 22,14.41 22,10 C22,9.71 22.02,9.42 22.05,9.14 C24.41,8.09 26.28,6.16 27.26,3.77 C29.07,6.33 32.05,8 35.42,8 C36.2,8 36.95,7.91 37.67,7.74 C37.88,8.45 38,9.21 38,10 C38,14.41 34.41,18 30,18 L30,18 Z" id="Icon"></path>
                        </g>
                    </g>
                </g>
            </g>
        </g>
    </g>
</svg>